<?xml version="1.0" encoding="utf-8"?>
<!-- Generator: Adobe Illustrator 26.5.0, SVG Export Plug-In . SVG Version: 6.00 Build 0)  -->
<svg version="1.1" id="Layer_1" xmlns:serif="http://www.serif.com/"
	 xmlns="http://www.w3.org/2000/svg" xmlns:xlink="http://www.w3.org/1999/xlink" x="0px" y="0px" viewBox="0 0 9847 2487.5"
	 style="enable-background:new 0 0 9847 2487.5;" xml:space="preserve">
<style type="text/css">
	.st0{fill:#0065AE;}
	.st1{fill:#009A80;}
</style>
<g>
	<g transform="matrix(1,0,0,1,-130,-87)">
		<path class="st0" d="M474.5,182h91.9l-63.6,118.7L474.5,182z M838.3,182h38.4l5-30.9H747l-5,30.9h51.8L570.6,588.2l-54.4-231.5
			L611.5,182h51.8l4.2-30.9H361.7l-5,30.9h53.5l47.6,199L344,588.2L248,182h51.8l5-30.9H135l-5,30.9h51.1l127.1,535h9.2l153.8-280
			L539,717h5L838.3,182z"/>
	</g>
	<g transform="matrix(1,0,0,1,-130,-87)">
		<path class="st0" d="M976.1,518.9c-20.9,40.1-44.3,72.8-70.2,97.7c-9.2,8.5-18.4,15.8-26.8,22.6c-13.4,8.5-26.8,15.8-30.9,15.8
			c-13.4,0-22.6-33.4-22.6-78.6c0-122.9,58.6-230.8,125.3-230.8c24.3,0,44.3,11.8,73.5,42.6C1008.8,447.1,996.1,480.5,976.1,518.9z
			 M1057.3,672c25.9-25,48.5-53.5,81-103.6l-25-15.8c-26.8,41-41.7,59.3-71.8,87.8v-24.3c0-15.1,1.7-35.1,6.6-61l42.6-239.9h-45.9
			l-7.5,27.6c-30.1-21.7-48.5-28.5-81.9-28.5c-56,0-93.7,22.6-132.1,78.6c-38.4,56-61.9,135.4-61.9,207.2
			c0,71.8,16.7,113.7,45.9,113.7c64.3,0,144.6-74.4,188.9-174.7l-5.9,34.4c-3.3,18.4-5.9,45.2-5.9,64.3c0,26.8,2.6,44.3,10.8,72.8
			C1018,703.8,1033,695.3,1057.3,672z"/>
	</g>
	<g transform="matrix(1,0,0,1,-130,-87)">
		<path class="st0" d="M1206.8,709.5c-7.5-18.4-9.2-26.8-9.2-41c0-12.5,2.6-37.7,5.9-59.3l37.7-238.3h-69.4v-15.8l76.1-25.2
			l18.4-118h57.7l-19.3,120.3h79.4l-6.6,38.4h-78.6l-44.3,275c57.7-40.1,71.1-51.8,112.1-93.7l22.6,20.9
			c-45.2,48.5-81.9,81-130.4,114.5C1239.5,701.2,1231.1,704.5,1206.8,709.5z"/>
	</g>
	<g transform="matrix(1,0,0,1,-130,-87)">
		<path class="st0" d="M1543.8,359.3c25.9-10.8,38.4-14.1,55.1-14.1c23.3,0,33.4,10.1,33.4,32.5v20.9l-143.9,89.5
			C1500.2,423.6,1508.7,403.6,1543.8,359.3z M1674,553.3c-47.6,66-102.9,108.8-141.3,108.8c-32.5,0-47.6-28.5-47.6-87.8V530
			l212.4-124.6v-20.9c0-40.1-41-70.2-94.4-70.2c-97,0-182.3,130.4-182.3,280c0,45.2,9.2,76.1,33.4,108.8c20,4.2,36,5.9,46.9,5.9
			c61.9,0,139.6-51.8,199-133.8L1674,553.3z"/>
	</g>
	<g transform="matrix(1,0,0,1,-130,-87)">
		<path class="st0" d="M1819.6,702.9h-56.8l53.5-331.8h-70.2v-15.8l114.5-39.3h20.9l-22.6,141.3c42.6-81.9,99.4-140.4,139.6-140.4
			c16.7,0,27.6,10.1,38.4,33.4l-59.3,61.9c-15.1-13.4-23.3-18.4-31.8-18.4c-16.7,0-39.3,24.3-66,71.8c-23.3,41-35.1,78.6-46.9,152.1
			L1819.6,702.9z"/>
	</g>
	<g transform="matrix(1,0,0,1,-130,-87)">
		<path class="st0" d="M2022.8,702.9l16.7-94.4h27.6c-2.6,10.1-3.3,19.3-3.3,25.9c0,24.3,25,41,61.9,41c36.7,0,67.8-30.1,67.8-64.3
			c0-25.9-17.6-51.8-52.7-79.4c-69.4-52.7-81.9-67.8-81.9-104.5c0-61.9,48.5-107.8,112.1-107.8c6.6,0,13.4,0,20,1.7
			c15.8,2.6,24.3,3.3,25.9,3.3h52.7l-14.1,94.4h-25.9c2.6-10.8,4.2-20.9,4.2-29.2c0-20.9-24.3-38.4-54.4-38.4
			c-34.4,0-65.2,27.6-65.2,58.6c0,25,11.8,39.3,65.2,79.4c51.8,39.3,69.4,66,69.4,102.9c0,65.2-58.6,116.1-132.1,116.1
			c-10.1,0-17.6-0.9-24.3-1.7c-8.5-2.6-14.1-3.3-15.1-3.3h-54.6V702.9z"/>
	</g>
	<g transform="matrix(1,0,0,1,-130,-87)">
		<path class="st0" d="M2584.4,575c-45.9,58.6-67.8,80.3-102,100.3c-16.7,10.1-37.7,18.4-61,25c-27.6,6.6-41,9.2-74.4,9.2
			c-29.2-38.4-39.3-66.9-39.3-116.1c0-152.1,88.6-280,194.8-280c39.3,0,74.4,13.4,101.2,38.4l-45.9,50.2c-6.6-9.2-11.8-15.8-15.1-20
			c-20-25.9-31.8-32.5-54.4-32.5c-18.4,0-32.5,4.2-63.6,17.6c-40.1,70.2-53.5,113.7-53.5,174.7c0,76.1,19.3,121.3,50.2,121.3
			c33.4,0,77-33.4,140.4-108.8L2584.4,575z"/>
	</g>
	<g transform="matrix(1,0,0,1,-130,-87)">
		<path class="st0" d="M2868.6,709.5c-8.5-24.3-10.8-36-10.8-51.1c0-11.8,1.7-27.6,5-49.2l29.2-179.7c1.7-13.4,3.3-20.9,3.3-23.3
			v-6.6c0-15.8-5-25-14.1-25c-13.4,0-30.1,13.4-59.3,45.2c-55.1,59.3-61.9,67.8-81,97.7c-27.6,44.3-37.7,71.1-45.2,118.7l-9.2,66.9
			h-56.8l88.6-560.9H2648v-15.1L2763.4,87h20.9l-65.2,413c44.3-67.8,78.6-107.8,121.3-144.6c27.6-23.3,59.3-39.3,79.4-39.3
			c21.7,0,36.7,20,36.7,49.2c0,9.2-2.6,32.5-6.6,57.7l-36.7,225.8c31.8-26.8,40.1-35.1,65.2-68.5l18.4-25.9l25.2,15.8
			c-48.5,68.5-68.5,91.9-98.7,115.4C2904.6,698.6,2894.5,703.8,2868.6,709.5z"/>
	</g>
	<g transform="matrix(1,0,0,1,-130,-87)">
		<path class="st0" d="M3275,518.9c-20.9,40.1-44.3,72.8-70.2,97.7c-9.2,8.5-18.4,15.8-26.8,22.6c-13.4,8.5-26.8,15.8-30.9,15.8
			c-13.4,0-22.6-33.4-22.6-78.6c0-122.9,58.4-230.8,125.5-230.8c24.3,0,44.3,11.8,73.5,42.6C3307.6,447.1,3295.1,480.5,3275,518.9z
			 M3356.1,672c25.9-25,48.5-53.5,81-103.6l-25-15.8c-26.8,41-41.9,59.3-71.8,87.8v-24.3c0-15.1,1.7-35.1,6.6-61l42.6-239.9h-45.9
			l-7.5,27.6c-30.1-21.7-48.5-28.5-81.9-28.5c-56,0-93.7,22.6-132.1,78.6c-38.4,56-61.9,135.4-61.9,207.2
			c0,71.8,16.7,113.7,45.9,113.7c64.3,0,144.6-74.4,188.9-174.7l-5.9,34.4c-3.3,18.4-5.9,45.2-5.9,64.3c0,26.8,2.6,44.3,10.8,72.8
			C3316.7,703.8,3331.8,695.3,3356.1,672z"/>
	</g>
	<g transform="matrix(1,0,0,1,-130,-87)">
		<path class="st0" d="M3571.8,598.3c5.9-41.7,20.9-78.6,46.9-116.1c39.3-57.7,88.6-102.9,111.2-102.9c17.6,0,28.5,28.5,28.5,74.4
			c0,117-60.3,224.9-126.2,224.9c-25.2,0-31.8-3.3-66.9-33.4L3571.8,598.3z M3603.5,878.5h-73.5l28.5-185.6
			c24.3,13.4,51.1,20.9,71.8,20.9c102.9,0,194.8-127.9,194.8-268.4c0-76.1-24.3-131.2-57.7-131.2c-43.5,0-117,62.7-172.2,147.9
			l24.3-146.2h-20.9l-116.1,38.4V371h70.2l-81,507.5h-61.9l-5,27.6h194L3603.5,878.5z"/>
	</g>
	<g transform="matrix(1,0,0,1,-130,-87)">
		<path class="st0" d="M4561.7,712h-26.1l-321-441.3V672h63.6v30.9h-168.8V672h63.6V213.8l-22.6-31.8h-57.7v-30.9h121.3l305.9,419.6
			V182h-63.6v-30.9h168.1V182h-62.7V712z"/>
	</g>
	<g transform="matrix(1,0,0,1,-130,-87)">
		<path class="st0" d="M4848.3,341.6c70.2,0,127.1,74.4,127.1,168.1c0,94.4-56,168.8-127.1,168.8c-70.2,0-126.2-75.3-126.2-169.8
			C4722.1,416.1,4777.9,341.6,4848.3,341.6z M4849,713.7c105.3,0,197.3-95.4,197.3-204.9c0-107.8-91.9-202.3-197.3-202.3
			c-106.9,0-199,93.7-199,202.3C4650.1,619.3,4742.1,713.7,4849,713.7z"/>
	</g>
	<g transform="matrix(1,0,0,1,-130,-87)">
		<path class="st0" d="M5311.3,341.6c70.2,0,127.1,74.4,127.1,168.1c0,94.4-56,168.8-127.1,168.8c-70.2,0-126.2-75.3-126.2-169.8
			C5185.1,416.1,5241.1,341.6,5311.3,341.6z M5312.2,713.7c105.3,0,197.3-95.4,197.3-204.9c0-107.8-91.9-202.3-197.3-202.3
			c-106.9,0-199,93.7-199,202.3C5113.2,619.3,5205.1,713.7,5312.2,713.7z"/>
	</g>
	<g transform="matrix(1,0,0,1,-130,-87)">
		<path class="st0" d="M5700.1,350.1h58.4c43.5,0,66.9,25.9,66.9,72.8c0,45.9-25.9,77-66,77h-59.3V350.1z M5955.8,672h-23.3
			c-18.4,0-33.4-10.1-48.5-30.9l-77.7-113.7c55.1-10.1,89.5-51.1,89.5-106.9c0-67.8-43.5-103.6-124.6-103.6h-197.3v33.4h62.7v321.9
			h-62.7v30.7h188.9V672h-62.7V533.3h41l89.5,134.7c20.9,31.8,27.6,35.1,64.3,35.1h61V672z"/>
	</g>
	<g transform="matrix(1,0,0,1,-130,-87)">
		<path class="st0" d="M6139,669.4V350.1h66c77,0,136.3,70.2,136.3,160.6c0,90.2-59.3,158.7-137.1,158.7H6139z M6012.8,702.9h198.1
			c115.4,0,202.3-82.7,202.3-193.1c0-107.8-88.6-193.1-202.3-193.1h-198.1v30.9h62.7v324.3h-62.7V702.9z"/>
	</g>
	<g transform="matrix(1,0,0,1,-130,-87)">
		<path class="st0" d="M6772.5,702.9h-299.3V672h62.7V347.7h-62.7v-30.9h262.5v-16.7h30.9v93.7h-30.1v-43.5h-137.1v139.6h106.9
			v-40.1l30.9-0.9v116.1h-30.9v-41.7h-106.9v146.2h142v-44.3h30.9v77.5H6772.5z"/>
	</g>
	<g transform="matrix(1,0,0,1,-130,-87)">
		<path class="st0" d="M6979,350.1h58.6c43.5,0,66.9,25.9,66.9,72.8c0,45.9-25.9,77-66,77h-59.3V350.1H6979z M7234.9,672h-23.3
			c-18.4,0-33.4-10.1-48.5-30.9l-77.7-113.7c55.1-10.1,89.5-51.1,89.5-106.9c0-67.8-43.5-103.6-124.6-103.6h-197.3v33.4h62.7v321.9
			h-62.7v30.7h188.9V672h-62.7V533.3h41l89.5,134.7c20.9,31.8,27.6,35.1,64.3,35.1h61V672z"/>
	</g>
	<g transform="matrix(1,0,0,1,-130,-87)">
		<path class="st0" d="M7610.1,702.9h-338.6v-17.6l239-335.3h-209.1v43.5h-30.1v-93.7h30.1v16.7h296.7v18.4l-240.7,334.4h222.3
			v-56.8h30.1v90.4H7610.1z"/>
	</g>
	<g transform="matrix(1,0,0,1,-130,-87)">
		<path class="st0" d="M7870.1,702.9h-188.9V672h62.7V350.1h-62.7v-33.4h188.9v33.4h-62.7V672h62.7V702.9z"/>
	</g>
	<g transform="matrix(1,0,0,1,-130,-87)">
		<path class="st0" d="M8056.5,713c-37.7,72.8-50.2,89.5-102,136.3l-20.9-21.7c51.1-56.8,60.3-83.6,60.3-179.7V350.3h-63.6v-33.4
			h189.8v33.4h-63.6V713z"/>
	</g>
	<g transform="matrix(1,0,0,1,-130,-87)">
		<path class="st0" d="M8485.4,702.9h-296.7V672h62.7V350.1h-62.7v-33.4h188.9v33.4h-62.7v319.3h140.4v-51.1h30.1V702.9z"/>
	</g>
	<g transform="matrix(1,0,0,1,-130,-87)">
		<path class="st0" d="M8669.3,713h-20l-150.5-362.9h-41v-33.4H8620v33.4h-52.7l107.8,258.3l105.3-258.3h-47.6v-33.4h121.3v33.4
			H8819L8669.3,713z"/>
	</g>
	<g transform="matrix(1,0,0,1,-130,-87)">
		<path class="st0" d="M9194.4,702.9h-299.3V672h62.7V347.7h-62.7v-30.9h262.5v-16.7h30.9v93.7h-30.1v-43.5h-137.1v139.6h106.9
			v-40.1l30.9-0.9v116.1h-30.9v-41.7h-106.9v146.2h142.2v-44.3h30.9V702.9z"/>
	</g>
	<g transform="matrix(1,0,0,1,-130,-87)">
		<path class="st0" d="M9312.3,707.8h-31V603.3h30.9v43.5c33.4,20,56.8,27.6,85.2,27.6c41.9,0,71.8-23.3,71.8-56
			c0-31.8-22.6-53.5-91.9-88.6c-73.5-36.7-98.7-66-98.7-115.4c0-60.3,52.7-107.8,119.6-107.8c27.6,0,51.8,5.9,76.1,19.3v-20.9h30.9
			v100.3h-30.9v-41.9c-32.7-17.6-47.6-21.7-70.2-21.7c-39.3,0-65.2,21.7-65.2,56c0,21.7,9.2,33.4,37.7,50.2
			c21.7,12.5,41.9,24.3,59.3,34.4c71.8,40.1,92,66.9,92,121.3c0,62.7-51.8,110.4-121.3,110.4c-31.8,0-61.9-9.2-94.4-27.6V707.8z"/>
	</g>
	<g transform="matrix(1,0,0,1,-130,-87)">
		<path class="st0" d="M9854.9,702.9h-205.8V672h71.1V350.1h-122v46.9h-30.1v-97h30.1v16.7h307.6v-16.7h30.9v97h-30.9v-46.9h-122
			V672h71.1V702.9z"/>
	</g>
	<g transform="matrix(1,0,0,1,-130,-87)">
		<path class="st1" d="M7363.5,1605.1c132.7-102.3,290.8-263.3,290.8-263.3c431.8,4.6,722,7,815,1.7c0,0,781.4-6.2,1341.6-99.8
			c125.9,446.6,166.1,504.1,166.1,504.1c-307.9-211.3-1336.4-188.7-1336.4-188.7l-512.4,10.8c-24.8-163.3-332-158-355.5,14.1
			C7772.5,1584,7505.7,1589.9,7363.5,1605.1z"/>
	</g>
	<g transform="matrix(1,0,0,1,-130,-87)">
		<path class="st0" d="M9862.4,2061.3c32.3,44.5,62.5,89.8,89.8,141.3l-7.3,3.9c-382,177.8-754.6,368-754.6,368
			c-35.1-220.3-132.7-351.8-132.7-351.8c-257.4-359-1075.5,69.4-1085.5,74.6c-76.2,40.2-82.3,43.4-82.3,43.4
			c-558,292.5-614,67.1-614,67.1c-35.3-98.3,22.2-219.2,124.9-348.2c0,0,260-306.8,531-518.1c0,0,17.8,12.9,46.7,21.9
			c0,0-175.6,219.2-338.6,496.4c-17.6,30.1-34,60.3-50.5,90.6c-29.9,61.2,27.7,19.5,27.7,19.5c62.1-40.6,120.7-77.2,175.6-110.1
			c0,0,321.5-199.7,708.5-325.7c171-55.7,516.8-86.4,649.8-67.4c0,0,226,18.4,400.9,102.2C9717.4,1848,9862.4,2061.3,9862.4,2061.3z
			"/>
	</g>
</g>
</svg>
