<?xml version="1.0" encoding="UTF-8" standalone="no"?>
<svg
   xmlns:dc="http://purl.org/dc/elements/1.1/"
   xmlns:cc="http://creativecommons.org/ns#"
   xmlns:rdf="http://www.w3.org/1999/02/22-rdf-syntax-ns#"
   xmlns:svg="http://www.w3.org/2000/svg"
   xmlns="http://www.w3.org/2000/svg"
   xmlns:sodipodi="http://sodipodi.sourceforge.net/DTD/sodipodi-0.dtd"
   xmlns:inkscape="http://www.inkscape.org/namespaces/inkscape"
   version="1.1"
   id="svg2"
   xml:space="preserve"
   width="681.09332"
   height="223.85333"
   viewBox="0 0 681.09332 223.85333"
   sodipodi:docname="Orionis-logo-RGB.eps"><metadata
     id="metadata8"><rdf:RDF><cc:Work
         rdf:about=""><dc:format>image/svg+xml</dc:format><dc:type
           rdf:resource="http://purl.org/dc/dcmitype/StillImage" /></cc:Work></rdf:RDF></metadata><defs
     id="defs6" /><sodipodi:namedview
     pagecolor="#ffffff"
     bordercolor="#666666"
     borderopacity="1"
     objecttolerance="10"
     gridtolerance="10"
     guidetolerance="10"
     inkscape:pageopacity="0"
     inkscape:pageshadow="2"
     inkscape:window-width="640"
     inkscape:window-height="480"
     id="namedview4" /><g
     id="g10"
     inkscape:groupmode="layer"
     inkscape:label="ink_ext_XXXXXX"
     transform="matrix(1.3333333,0,0,-1.3333333,0,223.85333)"><g
       id="g12"
       transform="scale(0.1)"><path
         d="m 3093.16,473.172 c 76.44,0 137.23,16.019 182.39,48.047 45.17,32.043 67.75,76.633 67.75,133.761 0,48.637 -15.83,85.692 -47.48,111.165 -31.65,25.48 -74.89,46.324 -129.7,62.535 -12.35,3.863 -23.94,7.144 -34.74,9.843 -10.81,2.7 -20.46,5.211 -28.95,7.524 -37.05,8.496 -63.5,16.601 -79.33,24.32 -15.82,7.723 -23.74,19.305 -23.74,34.742 0,16.211 8.12,28.95 24.33,38.215 16.21,9.262 37.05,13.895 62.53,13.895 28.56,0 51.53,-5.789 68.9,-17.371 17.37,-11.578 26.06,-25.86 26.06,-42.844 0,-3.863 1.35,-7.145 4.05,-9.844 2.7,-2.703 5.98,-4.051 9.85,-4.051 v 0 h 123.9 c 3.86,0 7.14,1.348 9.85,4.051 2.69,2.699 4.05,5.981 4.05,9.844 0,36.285 -10.24,68.707 -30.7,97.269 -20.45,28.567 -49.2,50.767 -86.26,66.587 -37.07,15.83 -80.3,23.74 -129.7,23.74 -73.34,0 -132.21,-16.79 -176.6,-50.37 -44.39,-33.59 -66.59,-78.941 -66.59,-136.07 0,-46.32 14.67,-81.836 44.01,-106.535 29.33,-24.707 68.71,-45.547 118.11,-62.535 20.85,-8.492 49.42,-17.367 85.7,-26.637 31.66,-7.719 54.43,-15.055 68.33,-22 13.89,-6.953 20.84,-17.375 20.84,-31.262 0,-15.441 -8.11,-28.371 -24.32,-38.8 -16.21,-10.422 -37.44,-15.629 -63.69,-15.629 -28.57,0 -52.31,5.988 -71.22,17.949 -18.92,11.969 -28.37,26.437 -28.37,43.43 v 0 1.148 c 0,3.871 -1.35,7.152 -4.05,9.852 -2.71,2.699 -5.99,4.05 -9.85,4.05 v 0 h -128.53 c -3.87,0 -7.15,-1.351 -9.85,-4.05 -2.7,-2.7 -4.05,-5.981 -4.05,-9.852 v 0 -11.57 c 0,-33.199 10.62,-62.918 31.85,-89.168 21.23,-26.25 51.14,-46.711 89.74,-61.379 38.6,-14.672 83.76,-22 135.48,-22 z m -348.38,8.098 c 3.86,0 7.14,1.359 9.84,4.058 2.7,2.703 4.06,5.981 4.06,9.844 v 0 568.588 c 0,3.85 -1.36,7.13 -4.06,9.84 -2.7,2.7 -5.98,4.05 -9.84,4.05 v 0 h -135.49 c -3.86,0 -7.14,-1.35 -9.84,-4.05 -2.7,-2.71 -4.05,-5.99 -4.05,-9.84 v 0 -568.588 c 0,-3.863 1.35,-7.141 4.05,-9.844 2.7,-2.699 5.98,-4.058 9.84,-4.058 v 0 z m -66.01,662.39 c 26.25,0 48.06,8.69 65.43,26.05 17.37,17.37 26.05,39.18 26.05,65.43 0,27.02 -8.49,49.02 -25.47,66.01 -16.99,16.98 -38.99,25.48 -66.01,25.48 -27.01,0 -49.02,-8.5 -66.01,-25.48 -16.98,-16.99 -25.47,-38.99 -25.47,-66.01 0,-26.25 8.68,-48.06 26.06,-65.43 17.36,-17.36 39.18,-26.05 65.42,-26.05 z M 2136.99,481.27 c 3.87,0 7.15,1.359 9.85,4.058 2.7,2.703 4.05,5.981 4.05,9.844 v 0 346.246 c 0,30.879 8.69,55.973 26.06,75.27 17.37,19.3 40.33,28.949 68.9,28.949 28.56,0 51.53,-9.649 68.9,-28.949 17.37,-19.297 26.06,-44.391 26.06,-75.27 v 0 -346.246 c 0,-3.863 1.35,-7.141 4.05,-9.844 2.7,-2.699 5.98,-4.058 9.84,-4.058 v 0 h 135.49 c 3.86,0 7.14,1.359 9.84,4.058 2.71,2.703 4.05,5.981 4.05,9.844 v 0 379.832 c 0,64.844 -18.91,116.184 -56.74,154.016 -37.83,37.82 -87.62,56.74 -149.38,56.74 -62.53,0 -109.63,-22.39 -141.28,-67.17 -0.77,-1.54 -1.93,-1.93 -3.47,-1.16 -1.55,0.78 -2.32,2.32 -2.32,4.64 v 0 40.53 c 0,3.86 -1.35,7.14 -4.05,9.84 -2.7,2.7 -5.98,4.06 -9.85,4.06 v 0 h -135.48 c -3.86,0 -7.14,-1.36 -9.84,-4.06 -2.71,-2.7 -4.06,-5.98 -4.06,-9.84 v 0 -567.428 c 0,-3.863 1.35,-7.141 4.06,-9.844 2.7,-2.699 5.98,-4.058 9.84,-4.058 v 0 z m -501.24,130.859 c -26.25,0 -48.44,7.723 -66.59,23.16 -18.14,15.441 -31.07,36.672 -38.79,63.691 -5.4,19.305 -8.11,46.321 -8.11,81.063 0,36.281 3.09,63.691 9.27,82.223 7.72,26.242 20.26,46.703 37.63,61.371 17.38,14.668 39.18,22 65.43,22 25.48,0 47.1,-7.332 64.85,-22 17.75,-14.668 30.88,-35.129 39.38,-61.371 6.17,-22.391 9.26,-49.797 9.26,-82.223 0,-29.336 -3.09,-56.359 -9.26,-81.063 -7.73,-27.019 -20.46,-48.25 -38.22,-63.691 -17.76,-15.437 -39.37,-23.16 -64.85,-23.16 z m 0,-140.117 c 64.85,0 120.24,17.179 166.18,51.539 45.93,34.34 77.39,81.629 94.37,141.847 10.81,36.286 16.22,75.274 16.22,116.961 0,42.457 -6.18,82.993 -18.53,121.59 -18.53,57.129 -50.18,101.711 -94.96,133.751 -44.77,32.04 -98.82,48.06 -162.12,48.06 -64.85,0 -120.43,-16.21 -166.76,-48.64 -46.31,-32.42 -78.36,-77.198 -96.11,-134.331 -10.81,-36.281 -16.21,-77.195 -16.21,-122.746 0,-42.461 5.4,-81.832 16.21,-118.113 16.98,-58.68 48.64,-104.989 94.96,-138.969 46.31,-33.961 101.9,-50.949 166.75,-50.949 z m -373.86,9.258 c 3.85,0 7.14,1.359 9.84,4.058 2.7,2.703 4.05,5.981 4.05,9.844 v 0 568.588 c 0,3.85 -1.35,7.13 -4.05,9.84 -2.7,2.7 -5.99,4.05 -9.84,4.05 v 0 H 1126.4 c -3.86,0 -7.14,-1.35 -9.85,-4.05 -2.7,-2.71 -4.05,-5.99 -4.05,-9.84 v 0 -568.588 c 0,-3.863 1.35,-7.141 4.05,-9.844 2.71,-2.699 5.99,-4.058 9.85,-4.058 v 0 z m -66.01,662.39 c 26.25,0 48.06,8.69 65.43,26.05 17.37,17.37 26.05,39.18 26.05,65.43 0,27.02 -8.49,49.02 -25.47,66.01 -16.99,16.98 -38.99,25.48 -66.01,25.48 -27.02,0 -49.02,-8.5 -66.01,-25.48 -16.98,-16.99 -25.47,-38.99 -25.47,-66.01 0,-26.25 8.68,-48.06 26.05,-65.43 17.37,-17.36 39.18,-26.05 65.43,-26.05 z M 844.016,481.27 c 3.863,0 7.144,1.359 9.843,4.058 2.707,2.703 4.051,5.981 4.051,9.844 v 0 316.141 c 0,30.105 9.656,54.234 28.953,72.371 19.301,18.144 42.848,28.375 70.641,30.687 10.809,1.543 19.301,2.317 25.476,2.317 15.442,0 28.95,-1.93 40.53,-5.793 10.04,-3.856 15.44,-1.157 16.21,8.113 v 0 l 24.32,132.012 c 1.54,8.49 -0.77,14.28 -6.95,17.37 -16.21,10.81 -38.21,16.21 -66.004,16.21 -53.27,0 -95.731,-23.16 -127.383,-69.48 -0.769,-1.54 -1.93,-1.93 -3.473,-1.16 -1.546,0.77 -2.32,2.32 -2.32,4.63 v 0 44.01 c 0,3.86 -1.344,7.14 -4.051,9.84 -2.699,2.7 -5.98,4.06 -9.843,4.06 v 0 H 708.527 c -3.855,0 -7.136,-1.36 -9.839,-4.06 -2.704,-2.7 -4.051,-5.98 -4.051,-9.84 v 0 -567.428 c 0,-3.863 1.347,-7.141 4.051,-9.844 2.703,-2.699 5.984,-4.058 9.839,-4.058 v 0 z M 304.559,608.66 c -42.461,0 -76.621,13.512 -102.489,40.531 -25.855,27.02 -38.793,62.914 -38.793,107.692 v 0 254.757 c 0,44.79 12.938,80.87 38.793,108.28 25.868,27.41 60.028,41.11 102.489,41.11 43.23,0 77.777,-13.7 103.64,-41.11 25.86,-27.41 38.793,-63.49 38.793,-108.28 v 0 -254.757 c 0,-44.778 -13.125,-80.672 -39.375,-107.692 C 381.375,622.172 347.02,608.66 304.559,608.66 Z m 0,-140.121 c 60.984,0 114.449,12.16 160.386,36.473 45.93,24.316 81.641,58.867 107.114,103.648 25.476,44.781 38.211,96.113 38.211,154.016 v 0 247.804 c 0,57.13 -12.735,107.7 -38.211,151.7 -25.473,44.02 -61.184,78.18 -107.114,102.49 -45.937,24.32 -99.402,36.48 -160.386,36.48 -60.215,0 -113.293,-12.16 -159.231,-36.48 -45.9296,-24.31 -81.6405,-58.47 -107.1132,-102.49 -25.4765,-44 -38.21089375,-94.57 -38.21089375,-151.7 v 0 -247.804 C 0.00390625,704.773 12.7383,653.629 38.2148,609.238 63.6875,564.852 99.3984,530.301 145.328,505.602 c 45.938,-24.711 99.016,-37.063 159.231,-37.063"
         style="fill:#3376b1;fill-opacity:1;fill-rule:nonzero;stroke:none"
         id="path14" /><path
         d="m 3059.44,3.39063 c 2.52,0 3.77,1.25781 3.77,3.76953 v 0 119.89884 c 0,13.82 4.28,25 12.82,33.562 8.55,8.539 19.74,12.809 33.56,12.809 13.32,0 24.19,-4.391 32.61,-13.192 8.42,-8.797 12.63,-20.109 12.63,-33.937 v 0 V 7.16016 c 0,-2.51172 1.26,-3.76953 3.77,-3.76953 v 0 h 19.23 c 2.51,0 3.77,1.25781 3.77,3.76953 v 0 124.42184 c 0,19.859 -5.97,35.699 -17.91,47.5 -11.93,11.816 -27.96,17.727 -48.07,17.727 -22.87,0 -39.84,-7.789 -50.9,-23.379 -0.25,-0.5 -0.56,-0.621 -0.94,-0.371 -0.37,0.242 -0.57,0.621 -0.57,1.121 v 0 16.218 c 0,2.512 -1.25,3.774 -3.77,3.774 v 0 h -19.23 c -2.51,0 -3.77,-1.262 -3.77,-3.774 v 0 V 7.16016 c 0,-2.51172 1.26,-3.76953 3.77,-3.76953 v 0 z M 2955.75,111.219 h -97.66 c -0.99,0 -1.5,0.5 -1.5,1.511 0.51,11.809 1.5,20.36 3.02,25.641 2.51,10.801 7.85,19.418 16.02,25.82 8.17,6.418 18.41,9.618 30.72,9.618 12.83,0 23.44,-3.329 31.87,-9.989 8.42,-6.66 14.01,-15.64 16.78,-26.961 1,-4.781 1.76,-12.808 2.25,-24.129 0,-1.011 -0.49,-1.511 -1.5,-1.511 z M 2907.87,0 c 16.34,0 30.79,3.46094 43.36,10.3594 12.57,6.9219 21.99,16.4101 28.27,28.4687 1.01,2.2735 0.51,4.0235 -1.5,5.2813 v 0 l -14.71,8.6797 c -2.01,1.25 -3.77,0.75 -5.28,-1.5196 -4.53,-8.789 -10.81,-15.5703 -18.85,-20.3476 -8.04,-4.7735 -17.35,-7.1719 -27.9,-7.1719 -14.08,0 -25.64,3.2695 -34.69,9.8086 -9.04,6.5312 -14.95,15.4609 -17.72,26.7734 -1,4.0196 -1.75,12.9375 -2.26,26.7578 0,1.0118 0.51,1.5196 1.5,1.5196 v 0 h 121.79 c 2.51,0 3.77,1.25 3.77,3.7695 v 0 12.0621 c 0,10.547 -0.51,19.348 -1.51,26.387 -3.01,21.121 -10.68,37.453 -23,49.024 -12.32,11.558 -29.91,17.339 -52.79,17.339 -18.34,0 -33.99,-4.902 -46.93,-14.711 -12.95,-9.8 -21.55,-22.871 -25.83,-39.21 -1.5,-5.282 -2.45,-11.25 -2.83,-17.911 -0.37,-6.66 -0.56,-15.269 -0.56,-25.8277 0,-22.6094 2.26,-39.961 6.78,-52.0313 5.28,-14.8203 13.95,-26.3789 26.02,-34.6797 C 2875.07,4.51953 2890.02,0.25 2907.87,0 Z m -184.01,3.39063 c 2.51,0 3.77,1.25781 3.77,3.76953 v 0 111.23084 c 0,14.07 4.27,25.691 12.83,34.871 8.54,9.168 19.34,14.019 32.42,14.519 v 0 l 4.9,0.379 c 5.53,0 10.43,-0.879 14.7,-2.648 2.52,-1 4.15,-0.242 4.9,2.269 v 0 l 4.15,18.469 c 0.5,2.27 -0.25,3.898 -2.27,4.91 -6.02,3.262 -13.19,4.899 -21.48,4.899 -10.81,0 -20.3,-2.579 -28.47,-7.739 -8.17,-5.14 -14.89,-12.371 -20.17,-21.679 -0.25,-0.493 -0.57,-0.68 -0.94,-0.563 -0.38,0.121 -0.57,0.563 -0.57,1.332 v 0 22.988 c 0,2.512 -1.26,3.774 -3.77,3.774 v 0 h -19.22 c -2.52,0 -3.77,-1.262 -3.77,-3.774 v 0 V 7.16016 c 0,-2.51172 1.25,-3.76953 3.77,-3.76953 v 0 z M 2620.16,111.219 h -97.64 c -1.01,0 -1.51,0.5 -1.51,1.511 0.5,11.809 1.51,20.36 3.02,25.641 2.51,10.801 7.85,19.418 16.02,25.82 8.17,6.418 18.41,9.618 30.73,9.618 12.81,0 23.44,-3.329 31.85,-9.989 8.42,-6.66 14.02,-15.64 16.78,-26.961 1.01,-4.781 1.76,-12.808 2.27,-24.129 0,-1.011 -0.51,-1.511 -1.52,-1.511 z M 2572.28,0 c 16.34,0 30.79,3.46094 43.36,10.3594 12.57,6.9219 21.99,16.4101 28.28,28.4687 1.01,2.2735 0.5,4.0235 -1.51,5.2813 v 0 l -14.71,8.6797 c -2,1.25 -3.77,0.75 -5.27,-1.5196 -4.52,-8.789 -10.81,-15.5703 -18.85,-20.3476 -8.05,-4.7735 -17.34,-7.1719 -27.9,-7.1719 -14.08,0 -25.64,3.2695 -34.69,9.8086 -9.05,6.5312 -14.95,15.4609 -17.72,26.7734 -1.01,4.0196 -1.76,12.9375 -2.26,26.7578 0,1.0118 0.5,1.5196 1.51,1.5196 v 0 h 121.77 c 2.52,0 3.77,1.25 3.77,3.7695 v 0 12.0621 c 0,10.547 -0.49,19.348 -1.5,26.387 -3.02,21.121 -10.68,37.453 -23,49.024 -12.31,11.558 -29.91,17.339 -52.78,17.339 -18.35,0 -34,-4.902 -46.94,-14.711 -12.95,-9.8 -21.56,-22.871 -25.83,-39.21 -1.51,-5.282 -2.45,-11.25 -2.83,-17.911 -0.37,-6.66 -0.56,-15.269 -0.56,-25.8277 0,-22.6094 2.26,-39.961 6.78,-52.0313 5.28,-14.8203 13.95,-26.3789 26.02,-34.6797 C 2539.48,4.51953 2554.44,0.25 2572.28,0 Z m -249.23,3.39063 c 2.52,0 3.78,1.25781 3.78,3.76953 v 0 119.89884 c 0,13.82 4.27,25 12.82,33.562 8.54,8.539 19.73,12.809 33.55,12.809 13.32,0 24.19,-4.391 32.61,-13.192 8.43,-8.797 12.63,-20.109 12.63,-33.937 v 0 V 7.16016 c 0,-2.51172 1.26,-3.76953 3.77,-3.76953 v 0 h 19.23 c 2.52,0 3.77,1.25781 3.77,3.76953 v 0 124.42184 c 0,19.859 -5.96,35.699 -17.91,47.5 -11.94,11.816 -27.96,17.727 -48.07,17.727 -22.87,0 -39.84,-7.789 -50.9,-23.379 -0.25,-0.5 -0.56,-0.621 -0.94,-0.371 -0.38,0.242 -0.56,0.621 -0.56,1.121 v 0 89.359 c 0,2.52 -1.26,3.781 -3.78,3.781 v 0 h -19.22 c -2.51,0 -3.77,-1.261 -3.77,-3.781 v 0 V 7.16016 c 0,-2.51172 1.26,-3.76953 3.77,-3.76953 v 0 z M 2176.38,0.371094 c 18.35,0 34.31,4.539066 47.88,13.578106 13.57,9.0508 22.25,20.8711 26.02,35.4414 v 0 l 1.5,7.5391 c 0.25,2.2617 -0.87,3.6484 -3.39,4.1484 v 0 l -18.47,3.0117 c -2.77,0.5118 -4.28,-0.4882 -4.53,-3.0117 v 0 l -0.37,-1.5078 v -1.5117 c -2.27,-10.0469 -7.86,-18.2773 -16.78,-24.6875 -8.93,-6.4102 -19.55,-9.6211 -31.86,-9.6211 -12.57,0 -23.06,3.3281 -31.49,9.9883 -8.41,6.6601 -13.88,15.6523 -16.39,26.9726 -2.27,9.0391 -3.4,21.8594 -3.4,38.4493 0,15.8278 1.13,28.5308 3.4,38.0778 2.51,11.051 7.98,19.922 16.39,26.582 8.43,6.66 18.92,9.989 31.49,9.989 12.57,0 23.25,-3.329 32.04,-9.989 8.8,-6.66 14.33,-14.761 16.6,-24.32 v 0 l 1.12,-5.66 c 0.51,-2.258 1.64,-3.391 3.4,-3.391 v 0 h 0.76 l 18.84,2.641 c 2.27,0.512 3.4,1.64 3.4,3.398 v 0 0.75 c -0.25,3.024 -1.01,6.793 -2.26,11.313 -4.02,13.828 -12.76,25.39 -26.21,34.687 -13.44,9.293 -29.34,13.953 -47.69,13.953 -18.1,0 -33.68,-4.722 -46.75,-14.14 -13.08,-9.422 -21.87,-21.93 -26.4,-37.52 -3.26,-12.57 -4.9,-27.902 -4.9,-45.9997 0,-20.1016 1.64,-35.6915 4.9,-46.7422 4.78,-16.0899 13.64,-28.8477 26.59,-38.2774 12.94,-9.42186 28.46,-14.140606 46.56,-14.140606 z M 2041.01,3.39063 c 2.52,0 3.77,1.25781 3.77,3.76953 v 0 256.37884 c 0,2.52 -1.25,3.781 -3.77,3.781 v 0 h -19.23 c -2.51,0 -3.77,-1.261 -3.77,-3.781 v 0 V 7.16016 c 0,-2.51172 1.26,-3.76953 3.77,-3.76953 v 0 z M 1881.14,23.3711 c -12.31,0 -22.31,2.8281 -29.98,8.4883 -7.66,5.6523 -11.49,14.0117 -11.49,25.0703 0,12.0703 5.02,21.4922 15.08,28.2812 10.05,6.7891 23.37,10.168 39.96,10.168 v 0 h 39.59 c 1,0 1.51,-0.4883 1.51,-1.5 v 0 -29.3984 c 0,-12.5703 -5.41,-22.5586 -16.21,-29.9805 -10.81,-7.4219 -23.63,-11.1289 -38.46,-11.1289 z m -5.28,-23.000006 c 12.32,0 23.5,1.957036 33.56,5.847656 10.05,3.90235 18.22,9.60935 24.5,17.15235 0.51,0.5078 0.95,0.6406 1.32,0.3789 0.38,-0.25 0.57,-0.6211 0.57,-1.1289 v 0 -15.46094 c 0,-2.51172 1.26,-3.76953 3.77,-3.76953 v 0 h 19.23 c 2.51,0 3.77,1.25781 3.77,3.76953 v 0 V 133.84 c 0,19.109 -6.16,34.441 -18.48,46.012 -12.32,11.558 -29.78,17.339 -52.4,17.339 -19.61,0 -35.95,-4.402 -49.02,-13.203 -13.07,-8.797 -20.61,-20.238 -22.62,-34.308 -0.5,-1.5 0.63,-2.508 3.39,-3.02 v 0 l 20.37,-2.629 c 2.26,-0.261 3.77,0.879 4.52,3.391 1.76,8.297 6.41,14.758 13.95,19.418 7.54,4.648 17.34,6.969 29.41,6.969 15.08,0 26.2,-3.707 33.37,-11.118 7.16,-7.41 10.74,-17.531 10.74,-30.351 v 0 -14.328 c 0,-1.012 -0.51,-1.512 -1.51,-1.512 v 0 h -43.74 c -24.38,0 -43.41,-5.461 -57.12,-16.398 -13.69,-10.9418 -20.54,-25.8325 -20.54,-44.6801 0,-18.6016 6.03,-32.4219 18.09,-41.4727 12.07,-9.03904 27.02,-13.578106 44.87,-13.578106 z M 1588.93,3.39063 c 2.51,0 3.89,1.1289 4.15,3.39843 v 0 l 53.91,211.13294 c 0.25,0.5 0.57,0.75 0.95,0.75 0.37,0 0.69,-0.25 0.94,-0.75 v 0 L 1703.92,6.78906 c 0.51,-2.26953 1.89,-3.39843 4.15,-3.39843 v 0 h 19.98 c 2.26,0 3.65,1.00781 4.15,3.01953 v 0 l 71.26,256.76184 c 0.25,1.258 0.06,2.25 -0.57,3.008 -0.63,0.761 -1.57,1.14 -2.82,1.14 v 0 h -19.23 c -2.26,0 -3.65,-1.011 -4.15,-3.019 v 0 L 1719.38,57.6914 c -0.25,-0.5117 -0.56,-0.7617 -0.94,-0.7617 -0.38,0 -0.69,0.25 -0.94,0.7617 v 0 l -55.43,206.2306 c -0.5,2.258 -1.88,3.398 -4.14,3.398 v 0 h -20.36 c -2.27,0 -3.65,-1.14 -4.15,-3.398 v 0 L 1580.26,57.6914 c -0.25,-0.5117 -0.57,-0.7617 -0.95,-0.7617 -0.37,0 -0.68,0.25 -0.94,0.7617 v 0 l -57.3,206.6096 c -0.51,2.008 -1.89,3.019 -4.15,3.019 v 0 h -19.98 c -2.52,0 -3.77,-1.011 -3.77,-3.019 v 0 l 0.37,-1.129 72.39,-256.76184 c 0.76,-2.01172 2.14,-3.01953 4.15,-3.01953 v 0 h 18.85"
         style="fill:#3376b1;fill-opacity:1;fill-rule:nonzero;stroke:none"
         id="path16" /><path
         d="m 3719.22,667.77 853.17,505.59 -853.17,505.58 z"
         style="fill:#f47437;fill-opacity:1;fill-rule:nonzero;stroke:none"
         id="path18" /><path
         d="m 4782.04,901.352 326.12,197.998 -326.12,198 z"
         style="fill:#fbc116;fill-opacity:1;fill-rule:nonzero;stroke:none"
         id="path20" /><path
         d="m 3928.86,406.691 663.59,394.981 -663.59,394.988 z"
         style="fill:#4cc3bf;fill-opacity:1;fill-rule:nonzero;stroke:none"
         id="path22" /><path
         d="m 3928.86,791.766 c 15.49,6.605 128.94,73.918 340.36,201.922 L 3928.86,1196.66 V 791.766"
         style="fill:#62cac6;fill-opacity:1;fill-rule:nonzero;stroke:none"
         id="path24" /></g></g></svg>
