<?xml version="1.0" encoding="utf-8"?>
<!-- Generator: Adobe Illustrator 26.5.0, SVG Export Plug-In . SVG Version: 6.00 Build 0)  -->
<svg version="1.1" id="Layer_1" xmlns="http://www.w3.org/2000/svg" xmlns:xlink="http://www.w3.org/1999/xlink" x="0px" y="0px"
	 viewBox="0 0 176 87.3" style="enable-background:new 0 0 176 87.3;" xml:space="preserve">
<style type="text/css">
	.st0{fill:#003789;}
	.st1{fill:#E00076;}
	.st2{fill:#97BE0E;}
	.st3{fill:#009DE0;}
</style>
<g>
	<path class="st0" d="M0.4,46.3c0.1-1.8,0.3-3.4,0.5-4.3c2.4-14,13.4-23.3,27.7-23.6c6.2-0.1,11.9,1.1,17.1,4.5
		c5.5,3.6,8.6,8.8,9.6,15.2c0.1,0.7,0,0.8-0.7,0.8c-3.7,0-7.5,0-11.2,0c-0.4,0-0.7,0-0.9-0.5c-1.6-5.7-5.7-8.6-11.3-9.3
		c-5.4-0.7-10.2,0.9-13.7,5.4c-2.4,3.1-3.5,6.8-3.9,10.6c-0.5,4.3-0.2,8.6,1.4,12.6c3.6,9.4,12.5,11.3,19.8,9c4.3-1.4,6.5-4.9,7.7-9
		c0.2-0.7,0.4-1.5,0.5-2.3c0.1-0.5,0.3-0.6,0.8-0.6c3.8,0,7.6,0,11.4,0c0.7,0,0.7,0.3,0.6,0.8c-1.3,12-9.6,20.6-21.6,22.1
		c-6.8,0.8-13.4,0.1-19.5-3.2c-7.8-4.2-12.1-11-13.8-19.6c-0.2-1-0.5-2.5-0.6-3.8C0.3,49.6,0.4,50.3,0.4,46.3z"/>
	<path class="st0" d="M175.7,77.5c-4.9-0.4-9.7-0.3-14.6-0.1c-0.8,0-1.2-0.1-1.7-0.8c-5.5-8.1-10.5-16.6-15.9-24.7
		c-0.2-0.2-0.3-0.5-0.5-0.8c-0.1,0.2-0.1,0.2-0.1,0.3c0,7.9-0.1,15.8,0.4,23.6c0.1,0.8,0.6,1.7,0,2.2c-0.4,0.4-1.4,0-2.1,0
		c-3.7,0-7.4-0.2-11.1,0.1c-0.5,0-0.6-0.1-0.5-0.5c0.3-4.6,0.5-9.3,0.6-13.9c0-1.4,0.1-2.8,0.1-4.2c0-8,0-16.1,0-24.1
		c-0.1-4.9-0.2-9.9-0.6-14.8c-0.1-0.7,0.1-0.9,0.8-0.8c4.1,0.5,8.2,0.5,12.3,0c0.4-0.1,0.8-0.2,0.7,0.6c-0.6,4.8-0.5,9.6-0.6,14.5
		c0,3.6,0,7.1,0,10.7c0,0.3-0.1,0.6,0.2,1c1.7-2,3.4-4,5-6c5.5-6.7,11-13.4,16.1-20.4c0.2-0.3,0.4-0.5,0.8-0.4
		c3.1,0.6,6.1,0.5,9.3-0.1c-0.4,0.8-1,1.3-1.5,1.8c-6.7,7.2-13.3,14.6-19.7,22.1c-0.4,0.5-0.5,0.8-0.1,1.3
		c6.4,9.8,12.9,19.5,19.7,29.1c1,1.4,1.9,2.8,3.1,4C175.7,77.4,175.7,77.5,175.7,77.5z"/>
	<path class="st1" d="M49.6,87.3c0.9-2.7,2-5.4,3.1-8.1C59.5,62.1,66.2,45,73,27.9c0.6-1.5,0.6-1.5-1-1.5c-1.4,0-2.8,0-4.6,0
		C75.3,17.7,83,9.2,90.8,0.6c0.3,0.6,0,1-0.1,1.4c-5.2,13.1-10.3,26.2-15.5,39.4c-5.9,14.9-11.8,29.9-17.7,44.8
		c-0.1,0.3-0.4,0.7-0.2,1.1C54.7,87.3,52.2,87.3,49.6,87.3z"/>
	<path class="st2" d="M64,86.8c-0.7-0.1-0.1-0.4-0.1-0.6c2.2-5.7,4.5-11.4,6.7-17c8.7-22,17.4-44,26.1-66.1c0.4-1.1,0.8-2.1,1.2-3.2
		c2.5,0,4.9,0,7.4,0c-0.2,1.2-0.8,2.3-1.2,3.5C96.7,22.2,89.3,40.9,82,59.6c0,0.1,0,0.1-0.1,0.2c-0.4,1.1-0.4,1.1,0.7,1.1
		c1.6,0,3.2,0,4.8,0c-0.1,0.5-0.5,0.8-0.7,1.1c-7.5,8.2-14.9,16.4-22.4,24.6C64.2,86.6,64.1,86.7,64,86.8z"/>
	<path class="st3" d="M103.7,18.7c1.6,4.2,3.1,8.1,4.6,12.1c5.4,14.3,10.9,28.6,17.1,42.6c0.5,1.2,1.1,2.3,1.6,3.4
		c0.3,0.5,0.2,0.7-0.4,0.6c-4.5-0.2-9-0.3-13.4,0c-0.7,0-0.7-0.4-0.9-0.8c-1.3-4-2.7-8.1-4-12.1c-0.4-1.3-0.9-2.5-1.3-3.8
		c-0.1-0.4-0.4-0.6-0.8-0.6c-5.4-0.1-10.7-0.3-16.1,0c-0.9,0.1-0.9-0.2-0.6-0.9c0.5-1.1,1-2.2,1.5-3.4c0.2-0.6,0.6-0.7,1.2-0.7
		c3.8,0,7.6,0,11.4,0c1.2,0,1.2,0,0.8-1.1C102.1,48,100,41.9,97.5,36c-0.2-0.6-0.3-1.1,0-1.8c1.9-4.9,3.8-9.7,5.7-14.6
		C103.4,19.4,103.5,19.1,103.7,18.7z"/>
</g>
</svg>
