{
  "$schema": "https://developer.microsoft.com/json-schemas/spfx/client-side-web-part-manifest.schema.json",
  "id": "772b2b14-9ce5-4c59-803a-9b5fec5fe36a",
  "alias": "ZaaksysteemWebPart",
  "componentType": "WebPart",
  "version": "*",
  "manifestVersion": 2,
  "requiresCustomScript": false,
  "supportedHosts": ["TeamsTab"],
  "supportsThemeVariants": true,

  "preconfiguredEntries": [
    {
      "groupId": "5c03119e-3074-46fd-976b-c60198311f70",
      "group": { "default": "Advanced" },
      "title": { "default": "Zaaksysteem" },
      "description": {
        "default": "Applicatie om documenten van xxllnc zaken te zien en te kopiëren naar Teams"
      },
      "officeFabricIconFontName": "Page",
      "properties": {
        "description": "Applicatie om documenten van xxllnc zaken te zien en te kopiëren naar Teams"
      }
    }
  ]
}
