{
  "$schema": "https://developer.microsoft.com/en-us/json-schemas/teams/v1.16/MicrosoftTeams.schema.json",
  "manifestVersion": "1.16",
  "packageName": "com.microsoft.teams.extension",
  "id": "${{TEAMS_APP_ID}}",
  "version": "2.0.0",
  "developer": {
    "name": "SPFx Teams",
    "websiteUrl": "https://products.office.com/en-us/sharepoint/collaboration",
    "privacyUrl": "https://privacy.microsoft.com/en-us/privacystatement",
    "termsOfUseUrl": "https://www.microsoft.com/en-us/servicesagreement"
  },
  "name": {
    "short": "Zaaksysteem Documenten",
    "full": "Zaaksysteem zaak documenten integratie"
  },
  "description": {
    "short": "Zaaksysteem zaak documenten integratie",
    "full": "Zaaksysteem zaak documenten integratie"
  },
  "icons": {
    "color": "color.png",
    "outline": "outline.png"
  },
  "accentColor": "#004578",
  "configurableTabs": [
    {
      "configurationUrl": "https://{teamSiteDomain}{teamSitePath}/_layouts/15/TeamsLogon.aspx?SPFX=true&dest={teamSitePath}/_layouts/15/teamshostedapp.aspx%3FopenPropertyPane=true%26teams%26componentId=772b2b14-9ce5-4c59-803a-9b5fec5fe36a%26forceLocale={locale}%26loadSPFX%3Dtrue%26debugManifestsFile%3Dhttps%3A%2F%2Flocalhost%3A4321%2Ftemp%2Fmanifests.js",
      "canUpdateConfiguration": true,
      "scopes": ["team"]
    }
  ],
  "permissions": ["identity", "messageTeamMembers"],
  "validDomains": [
    "*.login.microsoftonline.com",
    "*.sharepoint.com",
    "*.sharepoint-df.com",
    "spoppe-a.akamaihd.net",
    "spoprod-a.akamaihd.net",
    "resourceseng.blob.core.windows.net",
    "msft.spoppe.com"
  ],
  "webApplicationInfo": {
    "resource": "https://{teamSiteDomain}",
    "id": "00000003-0000-0ff1-ce00-000000000000"
  }
}
