<?xml version="1.0" encoding="utf-8"?>
<!-- Generator: Adobe Illustrator 27.1.1, SVG Export Plug-In . SVG Version: 6.00 Build 0)  -->
<svg version="1.1" id="Layer_1" xmlns="http://www.w3.org/2000/svg" xmlns:xlink="http://www.w3.org/1999/xlink" x="0px" y="0px"
	 viewBox="0 0 890.5078735 232.8762665" style="enable-background:new 0 0 890.5078735 232.8762665;" xml:space="preserve">
<style type="text/css">
	.st0{fill:#5D6571;}
</style>
<g id="petrKS_00000145745068620684039610000010270331351815853709_">
	<g>
		<g>
			<path class="st0" d="M0,66.4556961c0.92835-0.0449066,1.4133519-0.0886612,1.8983675-0.0888443
				c10.4193878-0.0038147,20.8389721,0.0289917,31.2579403-0.0370941c1.5515709-0.0098343,1.9901505,0.6373215,2.2724495,1.9968338
				c0.5987434,2.8834229,1.3884888,5.7267838,2.0782356,8.5917969c0.9072571,3.7684402,1.7663345,7.5486603,2.6959076,11.3115082
				c1.1651115,4.7163544,2.4033051,9.4146576,3.5673256,14.1312714c0.9280128,3.7603455,1.7606392,7.5442352,2.692585,11.3035431
				c1.1580772,4.6715851,2.382206,9.3267593,3.5623741,13.9929276c0.4326324,1.7105713,0.8129158,3.4343414,1.2360382,5.1473999
				c0.0957794,0.3877106,0.2705345,0.7559357,0.7326241,1.0801239c0.8431549-3.2497101,1.6653862-6.5050278,2.5351868-9.7475739
				c0.9141388-3.4078369,1.9067841-6.794754,2.8042221-10.2068253c0.8855209-3.3667068,1.6555748-6.7638931,2.5471992-10.1288986
				c1.2057304-4.5504379,2.5088921-9.0750656,3.713726-13.6257477c0.8915138-3.3673019,1.6704216-6.7642746,2.5400047-10.1375885
				c1.0896683-4.2270203,2.189682-8.4521484,3.3806-12.651062c0.1232376-0.4345016,0.8919373-0.975296,1.3644333-0.9784851
				c8.7320404-0.0589447,17.4646683-0.0582352,26.1967621-0.0030289c0.4662704,0.0029449,1.230835,0.5128784,1.3472977,0.9292374
				c1.4802017,5.2921295,2.8445053,10.6165161,4.2848053,15.9200439c1.1682587,4.301857,2.420372,8.5809097,3.5956955,12.8809052
				c0.9175949,3.3570251,1.7443924,6.7388916,2.6656647,10.0948868c1.1664505,4.2490997,2.4156036,8.4755173,3.5765762,12.7260742
				c0.9305725,3.4070282,1.7575378,6.8422623,2.6803589,10.2514725c0.4708939,1.7396851,1.051445,3.4496918,1.6075058,5.2544556
				c1.0402832-4.0657196,2.0964737-8.0276947,3.0624084-12.0115356c1.1574097-4.7734985,2.2138748-9.5714035,3.3590393-14.3479843
				c0.9260712-3.8627472,1.9512405-7.701828,2.8727112-11.5656509c0.8763885-3.6748581,1.6383362-7.3770599,2.5187607-11.0509033
				c0.8797913-3.671196,1.8678284-7.31633,2.7625885-10.9840851c0.5596924-2.2943344,1.0547028-4.6051712,1.536438-6.9174118
				c0.163208-0.7833099,0.4619904-1.2329788,1.3551178-1.230751c10.9644623,0.0273895,21.9289551,0.0328522,32.8934631,0.0483932
				c0.0908813,0.0001373,0.1817017,0.0610199,0.6587524,0.231781c-3.9940338,13.8356476-8.4424591,27.5595932-12.5828247,41.4839478
				c26.3218689,0,52.6265411,0,79.1083679,0c-2.3831787-7.9997559-7.6595306-13.1964493-15.25737-15.6480408
				c-11.3726044-3.6695786-25.2851562-0.8870697-32.3426971,11.14534c-0.141098-0.6360474-0.2945862-1.0061646-0.2949982-1.3764648
				c-0.0125122-11.2628326,0.0014954-22.5257263-0.0306854-33.788475c-0.0026855-0.9421844,0.497467-1.3435822,1.2013855-1.6100845
				c3.9557343-1.4976425,7.9813538-2.6448822,12.1739197-3.4127274c5.925354-1.0852242,11.8272705-1.1260376,17.7240143-0.3926773
				c5.2645874,0.6547623,10.3745728,2.0243988,15.3141479,4.1148529
				c7.1526337,3.0270004,13.4214325,7.2746658,18.7343597,12.8865204
				c5.2271271,5.521225,9.4931488,11.7088394,12.1855316,18.8884048c0.7322693,1.9527512,1.4708252,3.9031296,2.3933411,5.872467
				c0-0.5053635,0-1.0107422,0-1.5161057c-0.0001221-11.709404,0.0258179-23.4189377-0.0332642-35.1280518
				c-0.0074158-1.4689102,0.4519043-1.8265762,1.8553162-1.8183899c9.3771057,0.0547791,18.7550049,0.0643616,28.131897-0.0071564
				c1.5526733-0.0118484,1.9200439,0.477356,1.8656616,1.9474258c-0.1126404,3.0436935-0.0340271,6.0944595,0.1089478,9.2313156
				c5.2060242-9.6741333,13.5767517-14.0898438,24.3340149-14.836441c0-0.6947899-0.0000305-1.2759895-0.0000305-1.857193
				c-0.0001831-12.6025009,0.0173645-25.2050591-0.0266113-37.8074036
				c-0.0045776-1.3178368,0.2939453-1.7951756,1.7134094-1.7868843c10.1709595,0.0594044,20.3424072,0.0320034,30.5137024,0.0321712
				c0.3924866,0.0000038,0.7849731-0.0000057,1.4297791-0.0000057c0,28.1979141,0,56.3162956,0,84.4346771
				c0.1291199,0.0359039,0.2582092,0.0718079,0.3873291,0.1077347c1.6512756-2.1085587,3.306427-4.2140656,4.9530945-6.3262405
				c7.7514954-9.9426956,15.6563721-19.7721558,23.1459351-29.908493c1.980011-2.6797867,3.9578857-3.2691193,6.969574-3.2518082
				c19.3000183,0.110878,38.6009827,0.0563812,57.9016724,0.0569153c2.0993958,0.0000534,2.1045227,0.0020294,2.1078796,2.1284485
				c0.0039673,2.5304108-0.0105896,5.0608749,0.0036926,7.5912018c0.0028381,0.5041504,0.0997009,1.0077667,0.1485596,1.4676895
				c2.6464844-2.2583389,5.0641174-4.5578766,7.7199402-6.5378494c5.3031616-3.9536438,11.2592468-6.3680878,17.8100281-7.5847206
				c5.8308716-1.0829353,11.6364746-1.1256447,17.4318848-0.3764687c5.0544434,0.653389,9.9555664,1.9975357,14.6585999,4.1580811
				c5.4365845,2.4974899,10.215271,5.8354797,14.3693848,10.0681381
				c4.8594971,4.9514847,8.7251587,10.6206818,11.2746582,17.0898895c1.763916,4.4757233,3.2585449,9.057579,4.7445068,13.2299271
				c0-28.4034958,0-57.2708168,0-86.3468857c0.6735229,0,1.1984863,0.0000076,1.7233887,0
				c10.0224609-0.0001602,20.045166,0.0313129,30.0671387-0.0346966c1.4990234-0.0098724,1.9152222,0.3801785,1.9126587,1.8995953
				c-0.0467529,27.6361065-0.0343628,55.272316-0.0346069,82.9085007c0,0.6414566-0.000061,1.2829361-0.000061,2.0614929
				c26.9310303,0,53.7844238,0,80.7636719,0c-0.159729-2.1573105-1.1820068-3.9249649-2.2388916-5.6668777
				c-2.9127808-4.8004913-7.1722412-8.1051636-12.3825684-9.8321686c-4.2322998-1.4028091-8.6676025-2.1076126-13.2676392-1.3363724
				c-3.5794678,0.6001205-7.0043945,1.4054108-10.1942749,3.1792145c-3.4796753,1.9350204-6.2097778,4.6228638-8.3737183,7.9282532
				c-0.1596069,0.2438278-0.3161621,0.4912796-0.4970703,0.7188492c-0.0856934,0.1078033-0.2252808,0.1728058-0.5838623,0.4357147
				c-0.0418701-0.6303253-0.0974121-1.0785599-0.0976562-1.526825c-0.0050659-11.114006,0.0081787-22.2280579-0.0261841-33.3419647
				c-0.0031738-1.0080643,0.3694458-1.5051422,1.2692261-1.8404617c4.005127-1.4925079,8.0705566-2.6379852,12.3057251-3.4084244
				c5.9783325-1.087532,11.9422607-1.1366653,17.8676147-0.3313675c9.4608765,1.2858124,18.2028198,4.5869675,25.991333,10.2822266
				c7.0009766,5.1194153,12.5542603,11.4779968,16.786499,19.0051117c1.1715088,2.0837402,2.2036743,4.2610245,3.1154175,6.4714203
				c0.9142456,2.216568,1.5982666,4.5280914,2.4910889,7.1103439c0.0507202-0.8005295,0.117981-1.3708878,0.1182861-1.9412842
				c0.0054321-11.8086319,0.0029297-23.6172714,0.0028687-35.4259109c0-2.2023621,0.001709-2.2022476,2.194397-2.2023163
				c9.8735962-0.0003357,19.7473145,0.0254135,29.6206665-0.0298843c1.4484253-0.00811,1.9282227,0.3112335,1.9260254,1.8823624
				c-0.0506592,35.971611-0.0390625,71.9433212-0.0390625,107.9150162c0,0.5410156,0,1.0820312,0,1.7716827
				c-0.6256104,0.0512543-1.1518555,0.1315918-1.6779785,0.1319885
				c-10.0720825,0.0077209-20.1442871-0.0213318-30.2160645,0.0365601
				c-1.4699707,0.0084229-1.8356323-0.4876404-1.8312378-1.8841553c0.0432129-13.4458313,0.0258179-26.891861,0.0257568-40.3378296
				c0-0.6354065-0.000061-1.2707977-0.000061-1.9930878c-27.3249512,0-54.4862061,0-81.7039795,0
				c1.3771973,7.8869171,5.9180908,13.2071991,12.9650269,16.5879059c3.9415283,1.8909149,8.1642456,2.6377258,12.4525757,2.6611481
				c7.7802124,0.042511,14.4343872-2.5848694,19.1514282-9.0882263c0.682373-0.9408112,1.3840332-1.3156738,2.5581055-1.3103027
				c10.2703857,0.0471802,20.5409546,0.0270996,30.8115234,0.026947c0.5758667-0.0000153,1.1517944-0.0000153,2.0603027-0.0000153
				c-2.9640503,7.2230225-6.8555908,13.5205994-11.8169556,19.1048584
				c-7.7976685,8.7766418-17.2351685,15.1689911-28.7150269,17.9892578
				c-15.1325073,3.7176208-29.6071167,1.7037506-43.190918-6.0286713
				c-13.4732666-7.6695251-22.4200439-19.0539856-27.6233521-33.6984558c0,0.4915466,0,0.9830933,0,1.4746552
				c-0.0004272,11.6101685-0.0149536,23.2203827,0.0201416,34.8304443c0.00354,1.1772308-0.2603149,1.6654358-1.5536499,1.6598206
				c-10.2703247-0.0446777-20.5409546-0.0237732-30.8115234-0.0288849c-0.3845215-0.0002136-0.769043-0.0610962-1.2641602-0.1030884
				c0-13.3521576,0-26.630127,0-40.2369843c-1.1811523,3.5158844-2.0977783,6.7606506-3.3477783,9.8714294
				c-4.348877,10.8225708-11.2845459,19.5961761-21.0922852,26.0080109
				c-4.1672974,2.7243042-8.6670532,4.8162384-13.4488525,6.1223907
				c-6.8499756,1.8710632-13.8092957,2.6199799-20.9564819,1.7755737
				c-5.7280884-0.6767578-11.1673889-2.0486298-16.2977905-4.6840668c-3.7394714-1.920929-7.0328674-4.4304504-10.0337219-7.3501587
				c-0.2033386-0.1977844-0.4327087-0.3688354-1.0166016-0.8620148c0,0.9442749,0,1.5415649,0,2.138855
				c-0.0005493,20.0449219-0.0010071,40.0898132-0.0018005,60.1347351c-0.000061,2.0238037-0.0010681,2.0247498-2.0397644,2.0248108
				c-9.9231873,0.0002899-19.8464355,0-29.7696533-0.0000763c-0.5309448,0-1.0618896,0.0000458-1.7350464,0.0000458
				c0-18.3032684,0-36.4403076,0-54.7407837c-0.7033997-0.0360107-1.2740479-0.0903931-1.844696-0.0907135
				c-9.5759277-0.0051575-19.1520081-0.0322876-28.7275391,0.031662c-1.2449341,0.0083008-2.0123901-0.3583984-2.616333-1.3896484
				c-4.0145264-6.8551636-8.0244751-13.7132568-12.0840454-20.5417938
				c-4.7301025-7.9564362-9.5108032-15.8827667-14.2663879-23.8240662
				c-1.3519592-2.2574921-2.6928406-4.5215988-4.3266907-6.7219391c0,17.40979,0,34.8195801,0,52.4424286
				c-0.6620178,0-1.1394958,0-1.6169739,0.0000153c-10.0720825,0.0000763-20.1443481-0.0289764-30.2160645,0.0318146
				c-1.4945984,0.0090179-1.9173584-0.3858185-1.9144287-1.9155579c0.0496216-25.8499146,0.0353088-51.6999435,0.0351562-77.5499496
				c0-0.6322632,0.0000305-1.2645416,0.0000305-2.0290375c-6.9612427,0.3359528-13.505249,1.2130051-18.2960205,6.8053741
				c-2.2743225,2.6548462-3.6455078,5.8403931-3.7363586,9.2430878
				c-0.3331909,12.4774246-0.4528503,24.9613419-0.5655212,37.4436264
				c-0.0787659,8.7317047-0.0482178,17.4649811,0.0174255,26.1969147c0.0109558,1.4563751-0.433136,1.8125305-1.8437805,1.804306
				c-9.9725342-0.0581055-19.9454956-0.0298157-29.918335-0.0315247c-1.9177246-0.0003204-1.9190674-0.0052948-1.9191284-1.9996185
				c-0.0003967-13.4459839-0.0001831-26.8919373-0.0001526-40.3379059c0-0.5866089,0-1.1732178,0-1.8475037
				c-27.1288605,0-54.1391907,0-81.2798309,0c0.064682,2.3158417,0.843811,4.3531799,1.8228455,6.3067322
				c2.5339813,5.0564575,6.630661,8.5214539,11.761673,10.6074982c2.6492767,1.0770569,5.5652313,1.7483215,8.4154358,2.0126038
				c3.0086212,0.2789459,6.1195221,0.1134644,9.1195374-0.3181458c5.3401489-0.7682495,9.575531-3.6383209,12.792511-7.9082489
				c1.0188141-1.3522644,2.0540161-1.8801727,3.7648621-1.8650665c10.0216675,0.0884705,20.0445099,0.0434113,30.0669861,0.043396
				c0.5863647,0,1.17276,0,2.0736694,0c-3.522644,8.5261688-8.307373,15.9288483-14.6890869,22.1726837
				c-9.5144501,9.3089142-20.8340912,15.1936798-34.2274323,16.4274902
				c-11.1763763,1.0295715-21.8693695-0.89328-31.9594421-5.9896698
				c-10.0578613-5.0801239-18.0807495-12.3438873-23.9970093-21.9245911
				c-5.8986053-9.5521393-8.9028015-19.9262085-8.9020996-31.2308731
				c-5.6896515,18.5628586-11.379303,37.1257248-17.0896454,55.7561569c-10.3308945,0-20.5891876,0-31.2321396,0
				c-3.0626831-11.6360931-6.149025-23.4187164-9.2671585-35.1929169
				c-3.1254272-11.8017883-6.2825623-23.5951767-9.6849823-35.4061356c-0.8316727,3.195961-1.6703873,6.3901291-2.4935608,9.5883102
				c-1.7854538,6.9367371-3.5627441,13.8755798-5.3438644,20.8134613
				c-1.2926102,5.0350494-2.5791626,10.0716858-3.8809814,15.1043549
				c-1.2768936,4.9362946-2.5700607,9.8683777-3.8553314,14.8025055c-0.7892532,3.029953-1.5827179,6.0588379-2.3619308,9.0913696
				c-0.2214508,0.8618011-0.6449051,1.3141937-1.6358032,1.3112488c-9.5758286-0.0284576-19.1521225-0.0593414-28.7273674,0.0208588
				c-1.8215981,0.015274-1.6272545-1.4575348-1.8991928-2.2937317c-1.9747353-6.0720825-3.779108-12.1995239-5.646225-18.3067322
				c-1.9738083-6.4562378-3.9742661-12.9043579-5.9312401-19.3656769c-1.477293-4.8775177-2.8712139-9.7804108-4.3635921-14.6532135
				c-1.3887596-4.5344696-2.8959198-9.0327072-4.28265-13.5677948c-1.4886122-4.8682404-2.8726978-9.7683945-4.3496952-14.6403122
				c-1.0614562-3.5012131-2.2292295-6.9701309-3.2981272-10.4691696c-1.5013046-4.9145279-2.9495785-9.8452377-4.4329262-14.7652817
				C0.8313141,68.9057693,0.4454104,67.8105164,0,66.4556961z M479.6680908,150.2451172
				c16.3163452,0.1651611,27.7125854-12.6792603,27.6983032-27.9863739
				c-0.0142822-15.3384857-11.1559448-28.0327148-27.2660217-28.1787109
				c-16.1092224-0.1460037-27.5465698,12.4324417-27.9416809,27.5537109
				C451.7194824,138.4437408,465.0995178,150.3645477,479.6680908,150.2451172z M419.8832092,74.9743805
				c-3.456665,3.9646378-6.6977539,7.6327286-9.8847656,11.3472519
				c-7.5667419,8.8191452-15.1083679,17.6598663-22.6589966,26.492836c-2.2014465,2.5753632-2.1997375,2.576889-0.3415222,5.4643326
				c0.0267639,0.0415802,0.0613098,0.0781403,0.0882874,0.1195984c5.6600342,8.6954956,11.3243103,17.3881912,16.9776917,26.0880508
				c4.0596924,6.2473602,8.0977478,12.5087738,12.1608582,18.7539368c1.1045227,1.6977386,2.264679,3.3592834,3.399292,5.0374298
				c0.0863647-0.0351715,0.17276-0.0703278,0.2591553-0.1055145
				C419.8832092,137.227356,419.8832092,106.2823944,419.8832092,74.9743805z"/>
			<path class="st0" d="M755.2379761,77.161232c1.9832764-2.1675797,3.7506714-4.318924,5.7470703-6.2314224
				c3.2687988-3.1315308,7.1929932-5.1748047,11.517334-6.5310135c6.9505615-2.1798592,14.055542-2.2717209,21.1484985-1.3508224
				c8.1392822,1.0567551,15.5807495,3.9829788,21.5395508,9.8710785c3.7410889,3.6966934,6.5361328,8.086792,8.2094727,13.0786514
				c1.1503296,3.4315948,2.0089111,6.9658051,2.8830566,10.4827271c0.3313599,1.3335114,0.4052124,2.7434616,0.4833984,4.1249771
				c0.1762085,3.1136551,0.3934326,6.2311554,0.3982544,9.3473892c0.0336914,21.9298477,0.0181274,43.8597641,0.0175781,65.7896805
				c-0.000061,2.2984161-0.0022583,2.2987976-2.2783203,2.2988129c-9.8734131,0.0000916-19.7467651,0.0006561-29.6201782-0.0006866
				c-1.9840698-0.0002747-1.994873-0.0046387-1.9951172-1.9930573c-0.0025024-19.1514587,0.0062866-38.3029175-0.0100708-57.4543686
				c-0.0023804-2.7758408,0.1229248-5.5836792-0.2374878-8.3205261c-0.7032471-5.3404312-2.0808105-10.4283524-7.0917358-13.592926
				c-2.9547729-1.8659897-6.2246094-2.3497391-9.6086426-2.3617554c-3.8296509-0.0135803-7.5383911,0.4803925-10.9182739,2.5296478
				c-3.0987549,1.8787613-5.0101929,4.635437-6.2754517,7.9341507c-1.4946899,3.896698-1.7111816,7.998085-1.7225952,12.0849228
				c-0.0546875,19.5978317-0.024231,39.1959152-0.0248413,58.7939072c-0.0001221,2.3802643-0.0023193,2.380661-2.3468628,2.3806763
				c-9.8734131,0.0000916-19.7470093-0.0244141-29.6201172,0.029007c-1.3168945,0.0070953-1.6776123-0.3680573-1.6764526-1.6752472
				c0.0324097-36.1198273,0.0317993-72.2396622,0.0006104-108.3594894
				c-0.0010986-1.2741318,0.3027954-1.7095184,1.6482544-1.7014771c9.3770142,0.0560532,18.7545166,0.0546875,28.1315308,0.0013123
				c1.3832397-0.0078659,1.7766113,0.4231644,1.7318726,1.7803802
				C755.1704102,71.0869293,755.2379761,74.0635681,755.2379761,77.161232z"/>
			<path class="st0" d="M852.9827271,0.0303117c19.6973877-0.8605484,38.3358765,16.7114296,37.4979248,38.7683334
				c-0.730835,19.2331467-16.6098633,36.0905151-37.4665527,36.1402664
				c-20.5362549,0.0489883-37.7747192-16.7368355-37.5878906-38.1201553
				C815.5982056,17.1138535,832.3707886-0.6845626,852.9827271,0.0303117z M852.9360962,67.4045868
				c16.284668,0.3040924,30.6411743-13.6169586,30.1001587-31.005867
				c-0.477478-15.3492165-13.1756592-29.4949913-30.9337158-29.1014786
				c-15.565918,0.3449287-28.9692993,13.2108555-29.2006226,29.7502174
				C822.6681519,53.7589607,836.6599731,67.6904526,852.9360962,67.4045868z"/>
			<path class="st0" d="M720.1192627,54.7897835c-11.3226929,0-22.4164429,0-33.6992188,0
				c0-0.6135597,0.000061-1.1431236,0.000061-1.672699c0-9.9709625-0.0014038-19.9419289,0.0007935-29.9128914
				c0.0004272-1.9507732,0.0065308-1.9533539,1.9867554-1.9535408c10.0206299-0.0009441,20.0413208,0.0218372,30.0616455-0.0279732
				c1.288147-0.0064011,1.6882935,0.3152981,1.6809082,1.6521072c-0.0563354,10.1690788-0.0309448,20.3386307-0.0310669,30.5080261
				C720.1191406,53.8185539,720.1192627,54.254303,720.1192627,54.7897835z"/>
			<path class="st0" d="M857.0738525,49.1312408c0-5.1776619,0-10.1090698,0-15.0404816
				c-0.0939331-0.0165558-0.1878052-0.0331192-0.2816772-0.0496712c-1.0030518,3.2978287-1.9959106,6.5988083-3.0139771,9.8919678
				c-0.4197998,1.3578186-0.9838867,2.6772804-1.3139038,4.0545692c-0.2492676,1.0404549-0.8591919,1.1851654-1.7342529,1.1512947
				c-0.8915405-0.0345078-1.8027344-0.1183167-2.6743774,0.0177803c-1.4259033,0.2226448-2.1029053-0.445446-2.4222412-1.7002449
				c-0.8804932-3.4601669-1.7565918-6.9214745-2.932251-10.4547768c-0.4666748,1.7212143-0.9483032,3.4385338-1.395813,5.1646805
				c-0.5283203,2.0372124-0.979126,4.0964279-1.5819702,6.1106529c-0.1110229,0.3708191-0.7698975,0.7793388-1.2043457,0.8140831
				c-1.3308716,0.1063881-2.6851196,0.1311989-4.0098877-0.0072594c-0.50177-0.052433-1.2335205-0.5466843-1.3745117-0.9930534
				c-1.2106323-3.8322258-2.2915649-7.7051926-3.4494019-11.5545082c-0.6907349-2.2964363-1.4650879-4.5676575-2.1669922-6.8608761
				c-0.1514893-0.4949589-0.1535034-1.0356808-0.2495117-1.7395935c2.0464478,0,3.9215698-0.0453911,5.7908936,0.0393486
				c0.3616943,0.0163994,0.9213257,0.4836655,1.0142212,0.8406467c0.6806641,2.6144123,1.2526855,5.2568512,1.8880615,7.8834114
				c0.2046509,0.8454514,0.4966431,1.669735,0.8601074,2.8723068c0.2630005-0.6401634,0.4537964-0.989994,0.5531616-1.3641167
				c0.8292236-3.1237907,1.6170654-6.2589989,2.4921265-9.3697243c0.1029053-0.3661022,0.6452637-0.620945,1.0095825-0.8929882
				c0.09729-0.072691,0.2897949-0.0157719,0.4384155-0.0223579c4.3870239-0.1946354,4.3773804-0.192318,5.6210938,4.8101711
				c0.5407715,2.1747627,1.1306763,4.337326,2.0444946,6.5975266c0.2865601-1.0222702,0.6055908-2.036747,0.8527832-3.0684509
				c0.5150757-2.1496429,0.9901123-4.3088512,1.4852295-6.4632816c0.2919312-1.2703648,0.8295898-2.1341896,2.4023438-1.9036751
				c1.0542603,0.1544952,2.1495361,0.0293713,3.3526611,0.0293713c0-2.2840595,0-4.3974609,0-6.6063976
				c2.1276855,0,4.1256104,0,6.2687988,0c0,2.6015224,0,5.1524467,0,7.9785461
				c2.807373-2.12533,5.7406616-2.2301655,8.7503052-1.5076828c2.4858398,0.5967236,4.4150391,2.0498142,5.8031006,4.2031727
				c2.899231,4.4976883,2.1179199,11.4299202-1.6230469,14.9862251c-3.2661743,3.1050644-9.2418823,3.8057251-12.8858643,0.6970367
				c0.0755005,1.3127098-0.6463013,1.5187759-1.6625977,1.4732666
				C860.250061,49.0821381,858.7705688,49.1312408,857.0738525,49.1312408z M863.321228,38.534626
				c-0.0006714,2.8763046,1.9407959,4.9122009,4.6888428,4.9168243c2.9151611,0.0048866,4.8948364-1.981102,4.8960571-4.9118614
				c0.0013428-2.8615341-1.9570312-4.9115753-4.7045288-4.9248276
				C865.3360596,33.6009331,863.3218384,35.6313667,863.321228,38.534626z"/>
		</g>
	</g>
</g>
</svg>
